{
  "rules": {
    "room_list":{
      "com_list":{
          ".write":"auth != null",
          ".read":"auth != null"
      },
      ".write":"auth != null",
      ".read":"auth != null"
    },
    ".write":false,
    ".read":false
  }
}